booth.vcd
$date
	Thu Nov 20 01:02:02 2025
$end
$version
	Icarus Verilog
$end
$timescale
	1ps
$end
$scope module tb_booth_full $end
$var wire 32 ! product [31:0] $end
$var wire 1 " done $end
$var reg 1 # clk $end
$var reg 16 $ multiplicand [15:0] $end
$var reg 16 % multiplier [15:0] $end
$var reg 1 & start $end
$scope module DUT $end
$var wire 1 # clk $end
$var wire 16 ' multiplicand [15:0] $end
$var wire 16 ( multiplier [15:0] $end
$var wire 1 & start $end
$var wire 1 ) sft $end
$var wire 1 * qm1 $end
$var wire 1 + q0 $end
$var wire 32 , product [31:0] $end
$var wire 1 - ldQ $end
$var wire 1 . ldM $end
$var wire 1 / ldA $end
$var wire 1 " done $end
$var wire 16 0 data_bus [15:0] $end
$var wire 1 1 clrff $end
$var wire 1 2 clrQ $end
$var wire 1 3 clrA $end
$var wire 1 4 addsub $end
$var wire 16 5 Q_out [15:0] $end
$var wire 16 6 A_out [15:0] $end
$scope module CTRL $end
$var wire 1 # clk $end
$var wire 1 & start $end
$var wire 1 * qm1 $end
$var wire 1 + q0 $end
$var reg 1 4 addsub $end
$var reg 1 3 clrA $end
$var reg 1 2 clrQ $end
$var reg 1 1 clrff $end
$var reg 6 7 count [5:0] $end
$var reg 1 " done $end
$var reg 1 / ldA $end
$var reg 1 . ldM $end
$var reg 1 - ldQ $end
$var reg 1 ) sft $end
$var reg 3 8 state [2:0] $end
$upscope $end
$scope module DP $end
$var wire 16 9 A_out [15:0] $end
$var wire 16 : Q_out [15:0] $end
$var wire 1 4 addsub $end
$var wire 1 # clk $end
$var wire 1 3 clrA $end
$var wire 1 2 clrQ $end
$var wire 1 1 clrff $end
$var wire 16 ; data_in [15:0] $end
$var wire 1 / ldA $end
$var wire 1 . ldM $end
$var wire 1 - ldQ $end
$var wire 1 * qm1 $end
$var wire 1 ) sft $end
$var wire 1 + q0 $end
$var wire 16 < alu_out [15:0] $end
$var reg 16 = A [15:0] $end
$var reg 16 > M [15:0] $end
$var reg 16 ? Q [15:0] $end
$var reg 1 @ qm1_ff $end
$upscope $end
$upscope $end
$upscope $end
$enddefinitions $end
#0
$dumpvars
0@
b0 ?
b0 >
b0 =
b0 <
b0xxx ;
b0 :
b0 9
b0 8
bx 7
b0 6
b0 5
x4
x3
x2
x1
b0xxx 0
x/
x.
x-
b0 ,
0+
0*
x)
b11 (
b111 '
0&
b11 %
b111 $
0#
x"
b0 !
$end
#5000
b0 0
b0 ;
0"
04
0.
01
02
0-
0)
03
0/
1#
#10000
0#
#12000
1&
#15000
b1 8
1#
#20000
0#
#22000
0&
#25000
b111 0
b111 ;
b10 8
11
13
1.
1#
#30000
0#
#35000
b11 0
b11 ;
b111 <
b11 8
b10000 7
1-
0.
01
03
b111 >
1#
#40000
0#
#45000
b0 0
b0 ;
1+
b11 !
b11 ,
b11 5
b11 :
b11 ?
b110 8
0-
1#
#50000
0#
#55000
b11 8
b1111 7
1)
1#
#60000
0#
#65000
1*
1@
b1 !
b1 ,
b1 5
b1 :
b1 ?
b101 8
0)
1#
#70000
0#
#75000
b1111111111111001 <
b110 8
1/
14
1#
#80000
0#
#85000
b0 <
b11111111111110010000000000000001 !
b11111111111110010000000000000001 ,
b1111111111111001 6
b1111111111111001 9
b1111111111111001 =
b11 8
b1110 7
1)
04
0/
1#
#90000
0#
#95000
0+
b11 <
b110 8
0)
b1000000000000000 5
b1000000000000000 :
b1000000000000000 ?
b11111111111111001000000000000000 !
b11111111111111001000000000000000 ,
b1111111111111100 6
b1111111111111100 9
b1111111111111100 =
1#
#100000
0#
#105000
b11 8
b1101 7
1)
1#
#110000
0#
#115000
b101 <
b100 8
0)
0*
0@
b100000000000000 5
b100000000000000 :
b100000000000000 ?
b11111111111111100100000000000000 !
b11111111111111100100000000000000 ,
b1111111111111110 6
b1111111111111110 9
b1111111111111110 =
1#
#120000
0#
#125000
b110 8
1/
1#
#130000
0#
#135000
b1100 <
b11 8
b1100 7
1)
0/
b1010100000000000000 !
b1010100000000000000 ,
b101 6
b101 9
b101 =
1#
#140000
0#
#145000
b1001 <
b1010000000000000 5
b1010000000000000 :
b1010000000000000 ?
b101010000000000000 !
b101010000000000000 ,
b10 6
b10 9
b10 =
b110 8
0)
1#
#150000
0#
#155000
b11 8
b1011 7
1)
1#
#160000
0#
#165000
b1000 <
b101000000000000 5
b101000000000000 :
b101000000000000 ?
b10101000000000000 !
b10101000000000000 ,
b1 6
b1 9
b1 =
b110 8
0)
1#
#170000
0#
#175000
b11 8
b1010 7
1)
1#
#180000
0#
#185000
b111 <
b1010100000000000 5
b1010100000000000 :
b1010100000000000 ?
b1010100000000000 !
b1010100000000000 ,
b0 6
b0 9
b0 =
b110 8
0)
1#
#190000
0#
#195000
b11 8
b1001 7
1)
1#
#200000
0#
#205000
b101010000000000 !
b101010000000000 ,
b101010000000000 5
b101010000000000 :
b101010000000000 ?
b110 8
0)
1#
#210000
0#
#215000
b11 8
b1000 7
1)
1#
#220000
0#
#225000
b10101000000000 !
b10101000000000 ,
b10101000000000 5
b10101000000000 :
b10101000000000 ?
b110 8
0)
1#
#230000
0#
#235000
b11 8
b111 7
1)
1#
#240000
0#
#245000
b1010100000000 !
b1010100000000 ,
b1010100000000 5
b1010100000000 :
b1010100000000 ?
b110 8
0)
1#
#250000
0#
#255000
b11 8
b110 7
1)
1#
#260000
0#
#265000
b101010000000 !
b101010000000 ,
b101010000000 5
b101010000000 :
b101010000000 ?
b110 8
0)
1#
#270000
0#
#275000
b11 8
b101 7
1)
1#
#280000
0#
#285000
b10101000000 !
b10101000000 ,
b10101000000 5
b10101000000 :
b10101000000 ?
b110 8
0)
1#
#290000
0#
#295000
b11 8
b100 7
1)
1#
#300000
0#
#305000
b1010100000 !
b1010100000 ,
b1010100000 5
b1010100000 :
b1010100000 ?
b110 8
0)
1#
#310000
0#
#315000
b11 8
b11 7
1)
1#
#320000
0#
#325000
b101010000 !
b101010000 ,
b101010000 5
b101010000 :
b101010000 ?
b110 8
0)
1#
#330000
0#
#335000
b11 8
b10 7
1)
1#
#340000
0#
#345000
b10101000 !
b10101000 ,
b10101000 5
b10101000 :
b10101000 ?
b110 8
0)
1#
#350000
0#
#355000
b11 8
b1 7
1)
1#
#360000
0#
#365000
b1010100 !
b1010100 ,
b1010100 5
b1010100 :
b1010100 ?
b110 8
0)
1#
#370000
0#
#375000
b11 8
b0 7
1)
1#
#380000
0#
#385000
b101010 !
b101010 ,
b101010 5
b101010 :
b101010 ?
b110 8
0)
1#
#390000
0#
#395000
b111 8
1)
1#
#400000
0#
#405000
1+
b10101 !
b10101 ,
b10101 5
b10101 :
b10101 ?
b0 8
1"
0)
1#
#410000
0#
#415000
0"
1#
#420000
0#
#425000
1#
b1111111111111011 %
b1111111111111011 (
b1100 $
b1100 '
#430000
0#
#435000
1#
#440000
0#
#445000
b1 8
1#
1&
#450000
0#
#455000
b1100 0
b1100 ;
b10 8
11
13
1.
1#
0&
#460000
0#
#465000
b1100 <
b1111111111111011 0
b1111111111111011 ;
b1100 >
b11 8
b10000 7
1-
0.
01
03
1#
#470000
0#
#475000
b0 0
b0 ;
b101 8
0-
b1111111111111011 !
b1111111111111011 ,
b1111111111111011 5
b1111111111111011 :
b1111111111111011 ?
1#
#480000
0#
#485000
b1111111111110100 <
b110 8
1/
14
1#
#490000
0#
#495000
b0 <
b11 8
b1111 7
1)
04
0/
b11111111111101001111111111111011 !
b11111111111101001111111111111011 ,
b1111111111110100 6
b1111111111110100 9
b1111111111110100 =
1#
#500000
0#
#505000
b110 <
1*
1@
b111111111111101 5
b111111111111101 :
b111111111111101 ?
b11111111111110100111111111111101 !
b11111111111110100111111111111101 ,
b1111111111111010 6
b1111111111111010 9
b1111111111111010 =
b101 8
0)
1#
#510000
0#
#515000
b1111111111101110 <
b110 8
1/
14
1#
#520000
0#
#525000
b1111111111111010 <
b11111111111011100111111111111101 !
b11111111111011100111111111111101 ,
b1111111111101110 6
b1111111111101110 9
b1111111111101110 =
b11 8
b1110 7
1)
04
0/
1#
#530000
0#
#535000
0+
b11 <
b110 8
0)
b11111111111110 5
b11111111111110 :
b11111111111110 ?
b11111111111101110011111111111110 !
b11111111111101110011111111111110 ,
b1111111111110111 6
b1111111111110111 9
b1111111111110111 =
1#
#540000
0#
#545000
b11 8
b1101 7
1)
1#
#550000
0#
#555000
1+
b111 <
b100 8
0)
0*
0@
b1001111111111111 5
b1001111111111111 :
b1001111111111111 ?
b11111111111110111001111111111111 !
b11111111111110111001111111111111 ,
b1111111111111011 6
b1111111111111011 9
b1111111111111011 =
1#
#560000
0#
#565000
b110 8
1/
1#
#570000
0#
#575000
b10011 <
b11 8
b1100 7
1)
0/
b1111001111111111111 !
b1111001111111111111 ,
b111 6
b111 9
b111 =
1#
#580000
0#
#585000
b1111 <
1*
1@
b1100111111111111 5
b1100111111111111 :
b1100111111111111 ?
b111100111111111111 !
b111100111111111111 ,
b11 6
b11 9
b11 =
b101 8
0)
1#
#590000
0#
#595000
b1111111111110111 <
b110 8
1/
14
1#
#600000
0#
#605000
b11 <
b11111111111101111100111111111111 !
b11111111111101111100111111111111 ,
b1111111111110111 6
b1111111111110111 9
b1111111111110111 =
b11 8
b1011 7
1)
04
0/
1#
#610000
0#
#615000
b111 <
b110 8
0)
b1110011111111111 5
b1110011111111111 :
b1110011111111111 ?
b11111111111110111110011111111111 !
b11111111111110111110011111111111 ,
b1111111111111011 6
b1111111111111011 9
b1111111111111011 =
1#
#620000
0#
#625000
b11 8
b1010 7
1)
1#
#630000
0#
#635000
b1001 <
b110 8
0)
b1111001111111111 5
b1111001111111111 :
b1111001111111111 ?
b11111111111111011111001111111111 !
b11111111111111011111001111111111 ,
b1111111111111101 6
b1111111111111101 9
b1111111111111101 =
1#
#640000
0#
#645000
b11 8
b1001 7
1)
1#
#650000
0#
#655000
b1010 <
b110 8
0)
b1111100111111111 5
b1111100111111111 :
b1111100111111111 ?
b11111111111111101111100111111111 !
b11111111111111101111100111111111 ,
b1111111111111110 6
b1111111111111110 9
b1111111111111110 =
1#
#660000
0#
#665000
b11 8
b1000 7
1)
1#
#670000
0#
#675000
b1011 <
b110 8
0)
b111110011111111 5
b111110011111111 :
b111110011111111 ?
b11111111111111110111110011111111 !
b11111111111111110111110011111111 ,
b1111111111111111 6
b1111111111111111 9
b1111111111111111 =
1#
#680000
0#
#685000
b11 8
b111 7
1)
1#
#690000
0#
#695000
b110 8
0)
b11111111111111111011111001111111 !
b11111111111111111011111001111111 ,
b1011111001111111 5
b1011111001111111 :
b1011111001111111 ?
1#
#700000
0#
#705000
b11 8
b110 7
1)
1#
#710000
0#
#715000
b110 8
0)
b11111111111111111101111100111111 !
b11111111111111111101111100111111 ,
b1101111100111111 5
b1101111100111111 :
b1101111100111111 ?
1#
#720000
0#
#725000
b11 8
b101 7
1)
1#
#730000
0#
#735000
b110 8
0)
b11111111111111111110111110011111 !
b11111111111111111110111110011111 ,
b1110111110011111 5
b1110111110011111 :
b1110111110011111 ?
1#
#740000
0#
#745000
b11 8
b100 7
1)
1#
#750000
0#
#755000
b110 8
0)
b11111111111111111111011111001111 !
b11111111111111111111011111001111 ,
b1111011111001111 5
b1111011111001111 :
b1111011111001111 ?
1#
#760000
0#
#765000
b11 8
b11 7
1)
1#
#770000
0#
#775000
b110 8
0)
b11111111111111111111101111100111 !
b11111111111111111111101111100111 ,
b1111101111100111 5
b1111101111100111 :
b1111101111100111 ?
1#
#780000
0#
#785000
b11 8
b10 7
1)
1#
#790000
0#
#795000
b110 8
0)
b11111111111111111111110111110011 !
b11111111111111111111110111110011 ,
b1111110111110011 5
b1111110111110011 :
b1111110111110011 ?
1#
#800000
0#
#805000
b11 8
b1 7
1)
1#
#810000
0#
#815000
b110 8
0)
b11111111111111111111111011111001 !
b11111111111111111111111011111001 ,
b1111111011111001 5
b1111111011111001 :
b1111111011111001 ?
1#
#820000
0#
#825000
b11 8
b0 7
1)
1#
#830000
0#
#835000
0+
b110 8
0)
b11111111111111111111111101111100 !
b11111111111111111111111101111100 ,
b1111111101111100 5
b1111111101111100 :
b1111111101111100 ?
1#
#840000
0#
#845000
b111 8
1)
1#
#850000
0#
#855000
b0 8
1"
0)
0*
0@
b11111111111111111111111110111110 !
b11111111111111111111111110111110 ,
b1111111110111110 5
b1111111110111110 :
b1111111110111110 ?
1#
#860000
0#
#865000
0"
1#
#870000
0#
#875000
1#
b1111111111111100 %
b1111111111111100 (
b1111111111110111 $
b1111111111110111 '
#880000
0#
#885000
1#
#890000
0#
#895000
b1 8
1#
1&
#900000
0#
#905000
b1111111111110111 0
b1111111111110111 ;
b10 8
11
13
1.
1#
0&
#910000
0#
#915000
b1111111111111100 0
b1111111111111100 ;
b1111111111110111 <
b11 8
b10000 7
1-
0.
01
03
b1111111111110111 >
b1111111110111110 !
b1111111110111110 ,
b0 6
b0 9
b0 =
1#
#920000
0#
#925000
b0 0
b0 ;
b1111111111111100 !
b1111111111111100 ,
b1111111111111100 5
b1111111111111100 :
b1111111111111100 ?
b110 8
0-
1#
#930000
0#
#935000
b11 8
b1111 7
1)
1#
#940000
0#
#945000
b111111111111110 !
b111111111111110 ,
b111111111111110 5
b111111111111110 :
b111111111111110 ?
b110 8
0)
1#
#950000
0#
#955000
b11 8
b1110 7
1)
1#
#960000
0#
#965000
1+
b11111111111111 !
b11111111111111 ,
b11111111111111 5
b11111111111111 :
b11111111111111 ?
b110 8
0)
1#
#970000
0#
#975000
b11 8
b1101 7
1)
1#
#980000
0#
#985000
1*
1@
b1111111111111 !
b1111111111111 ,
b1111111111111 5
b1111111111111 :
b1111111111111 ?
b101 8
0)
1#
#990000
0#
#995000
b1001 <
b110 8
1/
14
1#
#1000000
0#
#1005000
b0 <
b10010001111111111111 !
b10010001111111111111 ,
b1001 6
b1001 9
b1001 =
b11 8
b1100 7
1)
04
0/
1#
#1010000
0#
#1015000
b1111111111111011 <
b110 8
0)
b1000111111111111 5
b1000111111111111 :
b1000111111111111 ?
b1001000111111111111 !
b1001000111111111111 ,
b100 6
b100 9
b100 =
1#
#1020000
0#
#1025000
b11 8
b1011 7
1)
1#
#1030000
0#
#1035000
b1111111111111001 <
b110 8
0)
b100011111111111 5
b100011111111111 :
b100011111111111 ?
b100100011111111111 !
b100100011111111111 ,
b10 6
b10 9
b10 =
1#
#1040000
0#
#1045000
b11 8
b1010 7
1)
1#
#1050000
0#
#1055000
b1111111111111000 <
b110 8
0)
b10001111111111 5
b10001111111111 :
b10001111111111 ?
b10010001111111111 !
b10010001111111111 ,
b1 6
b1 9
b1 =
1#
#1060000
0#
#1065000
b11 8
b1001 7
1)
1#
#1070000
0#
#1075000
b1111111111110111 <
b110 8
0)
b1001000111111111 5
b1001000111111111 :
b1001000111111111 ?
b1001000111111111 !
b1001000111111111 ,
b0 6
b0 9
b0 =
1#
#1080000
0#
#1085000
b11 8
b1000 7
1)
1#
#1090000
0#
#1095000
b110 8
0)
b100100011111111 !
b100100011111111 ,
b100100011111111 5
b100100011111111 :
b100100011111111 ?
1#
#1100000
0#
#1105000
b11 8
b111 7
1)
1#
#1110000
0#
#1115000
b110 8
0)
b10010001111111 !
b10010001111111 ,
b10010001111111 5
b10010001111111 :
b10010001111111 ?
1#
#1120000
0#
#1125000
b11 8
b110 7
1)
1#
#1130000
0#
#1135000
b110 8
0)
b1001000111111 !
b1001000111111 ,
b1001000111111 5
b1001000111111 :
b1001000111111 ?
1#
#1140000
0#
#1145000
b11 8
b101 7
1)
1#
#1150000
0#
#1155000
b110 8
0)
b100100011111 !
b100100011111 ,
b100100011111 5
b100100011111 :
b100100011111 ?
1#
#1160000
0#
#1165000
b11 8
b100 7
1)
1#
#1170000
0#
#1175000
b110 8
0)
b10010001111 !
b10010001111 ,
b10010001111 5
b10010001111 :
b10010001111 ?
1#
#1180000
0#
#1185000
b11 8
b11 7
1)
1#
#1190000
0#
#1195000
b110 8
0)
b1001000111 !
b1001000111 ,
b1001000111 5
b1001000111 :
b1001000111 ?
1#
#1200000
0#
#1205000
b11 8
b10 7
1)
1#
#1210000
0#
#1215000
b110 8
0)
b100100011 !
b100100011 ,
b100100011 5
b100100011 :
b100100011 ?
1#
#1220000
0#
#1225000
b11 8
b1 7
1)
1#
#1230000
0#
#1235000
b110 8
0)
b10010001 !
b10010001 ,
b10010001 5
b10010001 :
b10010001 ?
1#
#1240000
0#
#1245000
b11 8
b0 7
1)
1#
#1250000
0#
#1255000
0+
b110 8
0)
b1001000 !
b1001000 ,
b1001000 5
b1001000 :
b1001000 ?
1#
#1260000
0#
#1265000
b111 8
1)
1#
#1270000
0#
#1275000
b0 8
1"
0)
0*
0@
b100100 !
b100100 ,
b100100 5
b100100 :
b100100 ?
1#
#1280000
0#
#1285000
0"
1#
